\relax 
\@writefile{toc}{\contentsline {section}{\numberline {I}Introduction}{1}}
\@writefile{toc}{\contentsline {section}{\numberline {II}Methods and Theory}{1}}
\@writefile{toc}{\contentsline {section}{\numberline {III}Experiments}{1}}
\@writefile{toc}{\contentsline {subsection}{\numberline {\unhbox \voidb@x \hbox {III-A}}Dataset}{1}}
\@writefile{loa}{\contentsline {algorithm}{\numberline {1}{\ignorespaces  The boosting algorithm AdaBoost.}}{1}}
\newlabel{alg:AdaBoost}{{1}{1}}
\@writefile{toc}{\contentsline {subsection}{\numberline {\unhbox \voidb@x \hbox {III-B}}Implementation}{1}}
\@writefile{lot}{\contentsline {table}{\numberline {I}{\ignorespaces Classification results of AdaBoost}}{1}}
\newlabel{tab:Classification results of AdaBoost}{{I}{1}}
\@writefile{toc}{\contentsline {section}{\numberline {IV}Conclusion}{1}}
